Portfolio FFR
…
## Calculating cluster 14

## Calculating cluster 15

## Calculating cluster 16

## Calculating cluster 17

## Calculating cluster 18

crohns.markers %>%
    group_by(cluster) %>%
    dplyr::filter(avg_log2FC > 1)

## # A tibble: 39,468 × 7
## # Groups:   cluster [19]
##    p_val avg_log2FC pct.1 pct.2 p_val_adj cluster gene           
##    <dbl>      <dbl> <dbl> <dbl>     <dbl> <fct>   <chr>          
##  1     0       1.57 0.809 0.309         0 0       ENSG00000167286
##  2     0       1.67 0.851 0.355         0 0       ENSG00000111796
##  3     0       1.36 0.89  0.396         0 0       ENSG00000168685
##  4     0       1.55 0.751 0.304         0 0       ENSG00000277734
##  5     0       1.44 0.678 0.27          0 0       ENSG00000116824
##  6     0       1.67 0.657 0.267         0 0       ENSG00000069667
##  7     0       1.19 0.744 0.358         0 0       ENSG00000008517
##  8     0       1.34 0.616 0.246         0 0       ENSG00000198851
##  9     0       1.59 0.589 0.244         0 0       ENSG00000082074
## 10     0       1.13 0.779 0.437         0 0       ENSG00000118503
## # ℹ 39,458 more rows
…
